<svg width="16" height="16" viewBox="0 0 16 16" fill="none" xmlns="http://www.w3.org/2000/svg">
<path d="M5.5 3L10.5 8L5.5 13" stroke="#8A8884" stroke-opacity="1" stroke-width="1.4" stroke-linecap="round" stroke-linejoin="round"/>
</svg>
